The Slow March to Artistic Parity
…
58

Null Hypothesis: Mean percentage of women artists is the same between every decade.

#Building a variable with mean percentage of women artists by decade to smooth out some of the volatility.
tate_hyp <- tate %>%
  group_by(decade, acquisitionYear, Gender) %>%
  summarise(count = n()) %>%
  transmute(Gender, percent = round(count/sum(count) * 100, 1)) %>%
  filter(Gender == "Female")

tate_hyp 

## # A tibble: 67 x 4
## # Groups:   decade, acquisitionYear [67]
##    decade acquisitionYear Gender percent
##     <dbl>           <int> <fct>    <dbl>
##  1   1910            1917 Female    14.3
##  2   1920            1924 Female     9.1
##  3   1920            1925 Female    50  
##  4   1920            1927 Female     7.1
##  5   1930            1932 Female    16.7
##  6   1930            1933 Female     6.7
##  7   1930            1937 Female    25  
##  8   1930            1939 Female     5.3
##  9   1940            1940 Female    14.3
## 10   1940            1942 Female     6.7
## # ... with 57 more rows
…
